…
    ## 
    ## Attaching package: 'maps'

    ## The following object is masked from 'package:purrr':
    ## 
    ##     map

### Background

### Data Manipulation

    ## # A tibble: 3,277 x 2
    ##    decision_date season
    ##    <chr>         <chr> 
    ##  1 2/1/08        winter
    ##  2 2/1/08        winter
    ##  3 2/1/08        winter
    ##  4 2/1/08        winter
    ##  5 2/1/08        winter
    ##  6 2/1/08        winter
    ##  7 2/1/08        winter
    ##  8 2/1/08        winter
    ##  9 2/1/08        winter
    ## 10 2/1/08        winter
    ## # ... with 3,267 more rows
…
